{
    "hashes": {
        "appinfo\/info.xml": "959f6e0c50c6db75904bc7f84871ae0a2a3bbe1dfe17590f95f8a15de4aa6d2667b2f1dd4299a7f3fd0a4bb3ebb3f3cc9e7eb8475185ba231bded779c9804171",
        "appinfo\/routes.php": "8350a0feef5e6b07463f7bdffeeaf0ae47bb8f1e8eb681412c9db02f1c26a66431e0f623d02b0dde1bd79abe9b2213b74259b6a7a8d7c30d10599a6544fd5d80",
        "build\/main.css": "1bdd52d32676dfad7e3eb2ca38c1f81db32cda27a7d280c1a043499fa16e0297ac29c7da99f15770a6856f138afad2e3a8eef9e223f373c6426b30ad1dd73ef8",
        "build\/main.css.map": "6e48b4b2bd5274751f8d2e04be9b4aa50f6003dfcdd6411bda66f1d480c96dd5f4d9924636e9ff76ce643d5e8cef88f41d428e3b3ed6daba8119d4597fec1df4",
        "build\/main.js": "874f3201dec8bed691016186a05ebf053242e224ea46e4be007447202fc9fd2bea3a63b80b4d1cd118de1d15d57efa54cacc463db064f04632d8049d3e9bddf8",
        "build\/main.js.map": "600dc0b394078672bf681fd6e05addab6213bb9eaa363f7e696302cadf4ffec0a2976ead87cc2099fbf28ef9d5af323f1ba1f3acb49de777c043e82b71bc0ff9",
        "composer.json": "33e97f69ae69e0f7197e332bd3108152ba97c6d010d74e3886fc6a80e157e181cf62b1100e9ca428d6ac5329f56ea10f8767a29aa24b74f68ca1283ca2bc644e",
        "composer.lock": "688d26ff87ab7bd2b272214e5dbcf2cdfbea0dd0b1b82d4b2c0f3b4c852e788b0b477846c4c7efee47de154ea94c71505ad7c47a7592269f881bbf2e9f125d07",
        "css\/app.css": "ae8353c81bf737fdfb0e10f36180e97b541f54860e9f3264ea8b1580f1f36d5a96f2f06b03b4b0c62911ada4325ebef0fd04e5bd38d9129e73343993eeee93f7",
        "img\/app-dark.svg": "96d9b2721f0e764ae62ec21936c2b88496d611ec30d45daa62be6946230684947cceae3ab7858f678510b1615cca84835a6be999281c6bdec2feabf16f9c857f",
        "img\/app.svg": "2a2a026e32f55d1e5c55be958e86de3a3519fa644c59b3dbd39caeb95cbd3b9bdd86d01e43f0a45b0409238f4f2f720b42c068910c42ce1cf6f8f1b1ec78df6c",
        "js\/App.js": "97331903cd505d422d71c0216fe02a3f548d014c7998163cccb6086a74310c48a0d989abc4c1f91008f8527c1fe7d87ae7b7cf9e9b08d51920500db59fce0de5",
        "js\/Components\/BackgroundException.js": "b5e6fd372dfbd0f8a0aaebce0e8e873a831aa8c5de970031f08c5298a8bf44c26a6af4e52b99ccac48b82dff63c7e24cd9e26feec62a71c9976a06932b3d4f21",
        "js\/Components\/Exception.css": "a0948a6a5bed69138c1f06105a0120fa84fed5f6ff5ee21a0b175819ae7f9aadb87f59e1ebabe449fa614c4d6ee184b928badd3313ffa532889768af21b59ae3",
        "js\/Components\/Exception.js": "3dbf1ac7ff5578b93b8b73dd8b62a847170565516c59326e6732830f048031bc1622a9ecfbf8110fc55d7cfb0bea05b0e320e26a204ba83d985bafe2bcad2042",
        "js\/Components\/LevelSettings.css": "acd82a9e5ef485b4393df6ebb457acf54c665f2565f0f2512937e1ce7751e9ea4c4ccc9561ef0d72e5f6e88a4224908a959a19ef1f2364bcfe3cb6ddc7c38293",
        "js\/Components\/LogEntry.js": "60ae2d417eb2dad1aae643c817a741606586eba8929a3c4f6a1e0ede6338655be058b9df8176b81eea3725883c17ef694a19305c86269ab8f6bb5ef981824367",
        "js\/Components\/LogLevel.js": "0daf17681157f1850dee899ed9362cb0d94c88598d138159f9a8bdddff4196707765ab72bb60a1e53191d7cd9028986dc8560f1f07210c73c8e8ede1c4dbefb1",
        "js\/Components\/LogTable.css": "9f06c64877f7f4f11d129b7e90c4fde7b4312ceb36f9151e527cb8beee1b377fefae8648bcb2804a3ab57e1c058d0dcf6e0d0940080c22689e6566598beb2829",
        "js\/Components\/LogTable.js": "967de6f5bad07cb1e61c64ae8f6cfc34d78dd06160465cce0607d35a43d7e623dee42aafc99923f9bc448296aff645229cc8a853e11da927f5e0a44c3b01be68",
        "js\/Components\/LogUploader.css": "c869149f4433f765854447e07e7aba4e1b075823333a208b1c7ae40ceb78411733d56b6ddb696cffc9a88c3dd42b947bc063a0da8bb828478399b0296e945aef",
        "js\/Components\/LogUploader.js": "e1a7ce5f667bde13739ffab2a6ff80a2acb8e6170af2b5d0eac377c4db8efbb4a52f8a1e0378517d3c63c3226fd8fc11dbbadead32975e91d08cfba9bdac42d9",
        "js\/Components\/Settings.js": "27bba9dfcba29cdb4fcd619630b50bb7f1b2d33af3fc18df538739e37d377cd78c9392859d26619c42bc067b393cfd35cf7dea815a35becd83420c3a10ad283d",
        "js\/Components\/ToggleEntry.css": "e5ecc07fa67619d1a515edb8e4aac20ee75edb54181709b40a57e5756de944b6da97625702c7656f470109b88380aaa7da807b58b0d2658d467792879cbd0bb3",
        "js\/Components\/ToggleEntry.js": "ce0ab41b62ac8065bdb92629d58c0b9c7bd8bd59c3258077e63e7f69ea9d3403b1d31aa694a648a01091e218285badaa9557cab01a2496ae97dff227f06e2799",
        "js\/Components\/TraceLine.css": "c9fb60293eed4159102e0d119f5e563de4673d2313ddb6bd73c3a291208be05a701c44b700250c35f8d468a8d4127e1b34f9dd2d064494c3497a903750363ddc",
        "js\/Components\/TraceLine.js": "e842b77f50f47c028ba74e07722a6a34beb8cbbef2af35b2bc849d531de6e80a95d5b076c8a756d0284be18f0513079d2df7380c27f313ad34d9fc767c3ac366",
        "js\/DateFormatConverter.js": "3b7fd0bc24be1882cc06ad334f87ed5051fc9ab8a3c8a34b031551d6171bea7c58f0ca240264ebbde6df5fc6ac8bf14bea43a30410824215d7eeee31ff58c035",
        "js\/ExceptionParser.js": "48b098862d4cf8c8845b6a46e7658d374431317198965ee2e3270f3be8bbf8b38515d634d8d740234ec3b41f51565fadb998a1ddf63f9365d7aa9cfd723a05b6",
        "js\/Providers\/ClipboardProvider.js": "2ddd00e94817251f044815576015d1a927614fae535cf12a728b8328c6c2cf38105c15387ef440d3cb855b213380bdefed0d2a927a56c0d45d253321fec8bc69",
        "js\/Providers\/LogFile.js": "3572552591899475256db28931c07095dc08236e7003466d2a112f197b71dc00a6b4a55a8a8d3db8013b75764a8f957d6e2629c02b814d7bd373f8b96b517c26",
        "js\/Providers\/LogProvider.js": "82856e66b69f83bc27a0e9ab8a8cbdecf97af62c631d9a6757873f94bdafc8bf86bb0a918a55b5d63299e378b06b0cee75204f6339ba239f74bfa74e07c27c99",
        "js\/Search.js": "dad543cbc7e55d9656eb27642f905951b7205df3b56508eed8097e0dd93d03c2e869b5313f183993911d3e2f530a068d3b8af6046ee1f521b32fffc1ec886938",
        "js\/index.js": "ad21c4d7d565c458ab58241c3949a5fff14e2f95c7ce0e826a5efb57b6583de34e544ecbc39b97d42a438cfc2d0a5e0c130c5a3363db82505a90e7a40ce4072f",
        "js\/unserialize.js": "899b2beb9b576ddd9db0fe29ab0f287c29068b4fa2fb38847f78356513520945c3a1a158514fb0c45a441ee3863d2a85695983914e157d46c302a25e8ba372d7",
        "l10n\/af.js": "2d867d5d26acfebc0e3f122190413883ec28b5168be1a995322f68abadbfe22a7c5d5014bce57b98e54e4ac6c102bea73d9510da574b2fb08bbfba5fb384d122",
        "l10n\/af.json": "2ec36b9e499c2e2f717859978149234fd77e0288e259f0f2d15ae1c851921aa01d0b695f13a141bc6a0e0ee3b795d2a5cae782610ff3d87dcd647da333266fb8",
        "l10n\/ar.js": "92536dee6e57961f31d8a3e22236612ae60da7bf21afad0dfeb2286e13734c021cc9ab8892a0f6328d2da69e2fd5b433c5842b64fb79ade05a8d0e98cddcb9c9",
        "l10n\/ar.json": "0d99c28639ad8de2b305ac02d50e344af08bbf2fe81d6661ecb1f661aab89e48ea0a269876747ec572663c0d9308fac0b477a5841d661c321b6964ea18b94b7a",
        "l10n\/ast.js": "ce6c15a14e733c5636cb88de4b32744c590d6746716fb766b778c1d84a1dfb419c2df1388089aed04ade54c5a7ceb4483135c8256a3968afd55784cd3e29215a",
        "l10n\/ast.json": "1d0416c0860f05d27ffc127f5f44b515f691b6a5ba1d58747afa963315d9e0f188ba049986ba3d5ad561acf02a176e66f02673f27c7ab6d26a6aeb9ee37305cb",
        "l10n\/az.js": "91828870eee469ea1cdb8562eb8410725f6bd8a1878c32b69003911478c2d83cc50c39c4d7a96797abd522fa36348930ceb13f2303727ceae1ae619b5b713789",
        "l10n\/az.json": "16ab1d53ba334f9e41a226cc891e127ba817c2a79c12cb00461efa9c96395b012f56984beb7cd29cf01ce8ccb44e105617ade109159da92ebb8e965ab96df059",
        "l10n\/bg.js": "1af09441c8301d1100e405c678ba1cae34533fdad71c1099bda4b28b0c661ee7f3597a5b43944118a3cb65ad9cb9dc7a2e275dc702d28518de855f8d094c3d01",
        "l10n\/bg.json": "3d4e1ccbe4650a3992cc7c6511c9d6847c77add32671495e9116ff204fb03b72f4bc1f9a687ac23e989f86c5df906a96bb0f3d1fc2f4a3a84966aed743c5d3c5",
        "l10n\/bn_BD.js": "0229e7ecb0ba10fe738021c63b2235113fc36921938cabbb8b7c78da748995389ddb5472b31f3714478ab5e85874e19736abe05d3b711af500e1fcf738adc860",
        "l10n\/bn_BD.json": "94e776d55e24976f05c6bb727af0ab508e4aec7546d208d324c62cf1ea559de58c063fffb3b20c1972d26155d12b7886d205e69c24b55979f365da042d41db12",
        "l10n\/br.js": "53e94d166f2b7a733996aea73f80605439bb373c09e3de07e9d96eee9742770efddef3afd1e2e914e5c5dec149e3746652fb826f7e9d92b9946f9b648c3fccfe",
        "l10n\/br.json": "2f0133e848f8ea5556161af3598fe74429b2bba05541fa490c5e187dc664d092cc2243f459efda0434331d3842104363b878f1522b7c72647ade3f7d2e97c287",
        "l10n\/ca.js": "0ffa8cac710aa281f8b52de7d021eccac9f106e6bf05502641c958cd01b475d6c55ccd33030ba33ccf855c4fb774b5c12d7898288cb389f427457b5eef948dd8",
        "l10n\/ca.json": "1c54e9bc7ed33782f616ba166c9adadc27c4cae8c352405a2d1f7011aa2f36735989a423aebb5aec5a5c83e20c2f0d5d896e4f3306175be85ac8eee1e114094d",
        "l10n\/cs.js": "7c0e129eeb03a0fcb2b471ba6b36ef5e69cd48f3d30b93b66c820c6be9510120015c0ef28b239a96d1746c30cc3d471c10fbb4e66465e47d39cfc6f2dd61ea57",
        "l10n\/cs.json": "184226f8db72d2e4ae0217c164534d62326cd78bb4bec0e2551f777d48bce93931c2fcbdc8c6508e8191b040223ad09129b78f641be6c34a3bca04e60efd8f86",
        "l10n\/cy_GB.js": "a6edf007b30cb18f883ccbc0fc4dbd81afe02079e40cba464a5370bf518fc6d4df9e0523b6ae47b4426bc27dd87639c0ba0814d21ed094ed2b12914b36ceb347",
        "l10n\/cy_GB.json": "767c9e1a25b3fa14799d59b0650cfe2162b9e06494d75b839c4c1adf14fa4d851fab267c49dd529850f6a31af123e1f23241f24d2ede2a071470455102563d54",
        "l10n\/da.js": "fbe3c67ea6056387865e40359fa8811e826508e19b2ecc9c150c1e4ceb335a288ba40519d74d750ae333c19a6ac324ebe8865b09d4bc5133624905a3f5d4bfd8",
        "l10n\/da.json": "4134a8a0ef27a3d3a15ae717ce65cc1e3a095d8527141ee03b06482f716f66eb65584eecb4f7bc71a8cb4101db8882f2170c55fdddd8eaa9f8ae5ac9d34688c4",
        "l10n\/de.js": "12e5b5594a16770da8bd86c6e9d077993b49af4e0f8fd2906f28f4ba890d7cc23a578ce17e66c2ac86b11ab927cbd4009261a6e1ee2c207a7a5c0225fcbc673e",
        "l10n\/de.json": "e0b40a8f348eec98ab2a815e598040a9c628fb3875f015c4aa5bac26a0fb9b2d32c3eefc48bbb7f1f979b8b95f177239a19a5075ca282d46e0a2135534523844",
        "l10n\/de_DE.js": "41fbacd646baa22687e0d8554b3e395fb5cf8b06eec9841f2d8deb0bdaa8ae89db0d20bf17840b3661f77f79868307759e557f7cddfeb03f65aae399fd1193a7",
        "l10n\/de_DE.json": "1aa4be1bdae997df865ef9e911d5da6f8b1e89fef560fb1f7297234dbc3009dda7c3b760d086f832a606daa984b439ee1b8b92216e2534cd5b21c3120c29f6f6",
        "l10n\/el.js": "fb8957cc820dd81ea61578f3cfc40d4997c384ecfcee7f256fe0a89955c6379b9f8b55b723a8a0315c5c27b09608625d845eeea5e88bb5365324f94813c6c562",
        "l10n\/el.json": "52b3ac890de4de46f454291500f905da02c6c8e77522add4e0023900b15e130e45c0cd062e43b4d0d3004d8791ef50d463708ad7c15ef92a58a1cdbdd15a262e",
        "l10n\/en_GB.js": "2058e8e64da4f71a6714d86e2f02bbf741b7201936bf718acdd50b02903fec8367bd64e9de908118b514b2757a78be0caf1e0ef0c49fb24264099591040cf9c3",
        "l10n\/en_GB.json": "c5b49c938d3f4eae97c32b493cf6779f29300b62a4f9e6b4519e8dcfc12e0232abbbf8b6aa85aed0bdc95a632d305c394b726baa5dc9f10c21e91f19bc785a4f",
        "l10n\/eo.js": "d8a9d015862851895d6eb731242eb9c572be1ae178bac471b91bbbbbb7c53669000815d1ddeb633cb1e56563ec85a67229528d3636b2e6cff7871c02d55c5931",
        "l10n\/eo.json": "6a546b366ca3a00cd26da44281b760e234f0ba266d475a446b17c57a614d76ce09212ca7ea282fd0bc7cfea16c13b0f7e4b50fe9fa547910fe3eac3dd0da5ae7",
        "l10n\/es.js": "598ca6cb2f5f8022c6bab08ddf965795c35a77bf6e57d6bf608e583314638e6b478347735eb103ee96b422c77879006c2a9ca9ee264d170eb53d2789120f2f11",
        "l10n\/es.json": "d53b8743517dd1cf4012010959ab73a75fffb2fb43606d253e18a7e3eb962f57ba161166c635113faeb520acc271e5deb4962c33942fcddadb2fe4ce8ae600d4",
        "l10n\/es_419.js": "4f38c84a31cd231902c341a7a737074e437439e186e6497bbf7f96cfe8525eb40cf80e4d091d1aa4c37d50d48787a49f58fa047bca4784ed86823bedd1dfb3ba",
        "l10n\/es_419.json": "29e9f2a80dcd3af9b538177ad7dbb060f45bdf7a7801eaab51cfa2a5195aa9e24b368ee7989c681182091937ad80605b0e414cd7e9f9e66f13d1895035f7c684",
        "l10n\/es_AR.js": "e5ca99b895a30feafb3201c4486aa2105272b83afc81ceacfb24fdc6b4f5d8dbb33f5e0900200d3d1f8a2e9f81316ba764766c4d0a975a834e220e5385fe58d4",
        "l10n\/es_AR.json": "d472205005103f94855bb925643f83a33184f4ea50cc9a58267bca47bb9f4917419cf13033babb2fc76f47a00ae3ff4ed5a30dd674639897089a471374bbe33c",
        "l10n\/es_CL.js": "4f38c84a31cd231902c341a7a737074e437439e186e6497bbf7f96cfe8525eb40cf80e4d091d1aa4c37d50d48787a49f58fa047bca4784ed86823bedd1dfb3ba",
        "l10n\/es_CL.json": "29e9f2a80dcd3af9b538177ad7dbb060f45bdf7a7801eaab51cfa2a5195aa9e24b368ee7989c681182091937ad80605b0e414cd7e9f9e66f13d1895035f7c684",
        "l10n\/es_CO.js": "4f38c84a31cd231902c341a7a737074e437439e186e6497bbf7f96cfe8525eb40cf80e4d091d1aa4c37d50d48787a49f58fa047bca4784ed86823bedd1dfb3ba",
        "l10n\/es_CO.json": "29e9f2a80dcd3af9b538177ad7dbb060f45bdf7a7801eaab51cfa2a5195aa9e24b368ee7989c681182091937ad80605b0e414cd7e9f9e66f13d1895035f7c684",
        "l10n\/es_CR.js": "4f38c84a31cd231902c341a7a737074e437439e186e6497bbf7f96cfe8525eb40cf80e4d091d1aa4c37d50d48787a49f58fa047bca4784ed86823bedd1dfb3ba",
        "l10n\/es_CR.json": "29e9f2a80dcd3af9b538177ad7dbb060f45bdf7a7801eaab51cfa2a5195aa9e24b368ee7989c681182091937ad80605b0e414cd7e9f9e66f13d1895035f7c684",
        "l10n\/es_DO.js": "4f38c84a31cd231902c341a7a737074e437439e186e6497bbf7f96cfe8525eb40cf80e4d091d1aa4c37d50d48787a49f58fa047bca4784ed86823bedd1dfb3ba",
        "l10n\/es_DO.json": "29e9f2a80dcd3af9b538177ad7dbb060f45bdf7a7801eaab51cfa2a5195aa9e24b368ee7989c681182091937ad80605b0e414cd7e9f9e66f13d1895035f7c684",
        "l10n\/es_EC.js": "4f38c84a31cd231902c341a7a737074e437439e186e6497bbf7f96cfe8525eb40cf80e4d091d1aa4c37d50d48787a49f58fa047bca4784ed86823bedd1dfb3ba",
        "l10n\/es_EC.json": "29e9f2a80dcd3af9b538177ad7dbb060f45bdf7a7801eaab51cfa2a5195aa9e24b368ee7989c681182091937ad80605b0e414cd7e9f9e66f13d1895035f7c684",
        "l10n\/es_GT.js": "4f38c84a31cd231902c341a7a737074e437439e186e6497bbf7f96cfe8525eb40cf80e4d091d1aa4c37d50d48787a49f58fa047bca4784ed86823bedd1dfb3ba",
        "l10n\/es_GT.json": "29e9f2a80dcd3af9b538177ad7dbb060f45bdf7a7801eaab51cfa2a5195aa9e24b368ee7989c681182091937ad80605b0e414cd7e9f9e66f13d1895035f7c684",
        "l10n\/es_HN.js": "4f38c84a31cd231902c341a7a737074e437439e186e6497bbf7f96cfe8525eb40cf80e4d091d1aa4c37d50d48787a49f58fa047bca4784ed86823bedd1dfb3ba",
        "l10n\/es_HN.json": "29e9f2a80dcd3af9b538177ad7dbb060f45bdf7a7801eaab51cfa2a5195aa9e24b368ee7989c681182091937ad80605b0e414cd7e9f9e66f13d1895035f7c684",
        "l10n\/es_MX.js": "0ad5c5b75c54d2151a5c08dde4a25989a4356f59a779b100034f0f832e47fe8c2dde10dd9f8b09bb719f84830aca21ce95f4cb66a22aa54d6beaaf131bdb7504",
        "l10n\/es_MX.json": "4eacba83e113c788b3406310c5d8153e0b6a9068194bc2068bf7df4967a1beab5830ad44a8192b4debef5165ba718ded902c66447fcc20fbf0910783dcbd7662",
        "l10n\/es_NI.js": "4f38c84a31cd231902c341a7a737074e437439e186e6497bbf7f96cfe8525eb40cf80e4d091d1aa4c37d50d48787a49f58fa047bca4784ed86823bedd1dfb3ba",
        "l10n\/es_NI.json": "29e9f2a80dcd3af9b538177ad7dbb060f45bdf7a7801eaab51cfa2a5195aa9e24b368ee7989c681182091937ad80605b0e414cd7e9f9e66f13d1895035f7c684",
        "l10n\/es_PA.js": "4f38c84a31cd231902c341a7a737074e437439e186e6497bbf7f96cfe8525eb40cf80e4d091d1aa4c37d50d48787a49f58fa047bca4784ed86823bedd1dfb3ba",
        "l10n\/es_PA.json": "29e9f2a80dcd3af9b538177ad7dbb060f45bdf7a7801eaab51cfa2a5195aa9e24b368ee7989c681182091937ad80605b0e414cd7e9f9e66f13d1895035f7c684",
        "l10n\/es_PE.js": "4f38c84a31cd231902c341a7a737074e437439e186e6497bbf7f96cfe8525eb40cf80e4d091d1aa4c37d50d48787a49f58fa047bca4784ed86823bedd1dfb3ba",
        "l10n\/es_PE.json": "29e9f2a80dcd3af9b538177ad7dbb060f45bdf7a7801eaab51cfa2a5195aa9e24b368ee7989c681182091937ad80605b0e414cd7e9f9e66f13d1895035f7c684",
        "l10n\/es_PR.js": "4f38c84a31cd231902c341a7a737074e437439e186e6497bbf7f96cfe8525eb40cf80e4d091d1aa4c37d50d48787a49f58fa047bca4784ed86823bedd1dfb3ba",
        "l10n\/es_PR.json": "29e9f2a80dcd3af9b538177ad7dbb060f45bdf7a7801eaab51cfa2a5195aa9e24b368ee7989c681182091937ad80605b0e414cd7e9f9e66f13d1895035f7c684",
        "l10n\/es_PY.js": "4f38c84a31cd231902c341a7a737074e437439e186e6497bbf7f96cfe8525eb40cf80e4d091d1aa4c37d50d48787a49f58fa047bca4784ed86823bedd1dfb3ba",
        "l10n\/es_PY.json": "29e9f2a80dcd3af9b538177ad7dbb060f45bdf7a7801eaab51cfa2a5195aa9e24b368ee7989c681182091937ad80605b0e414cd7e9f9e66f13d1895035f7c684",
        "l10n\/es_SV.js": "4f38c84a31cd231902c341a7a737074e437439e186e6497bbf7f96cfe8525eb40cf80e4d091d1aa4c37d50d48787a49f58fa047bca4784ed86823bedd1dfb3ba",
        "l10n\/es_SV.json": "29e9f2a80dcd3af9b538177ad7dbb060f45bdf7a7801eaab51cfa2a5195aa9e24b368ee7989c681182091937ad80605b0e414cd7e9f9e66f13d1895035f7c684",
        "l10n\/es_UY.js": "4f38c84a31cd231902c341a7a737074e437439e186e6497bbf7f96cfe8525eb40cf80e4d091d1aa4c37d50d48787a49f58fa047bca4784ed86823bedd1dfb3ba",
        "l10n\/es_UY.json": "29e9f2a80dcd3af9b538177ad7dbb060f45bdf7a7801eaab51cfa2a5195aa9e24b368ee7989c681182091937ad80605b0e414cd7e9f9e66f13d1895035f7c684",
        "l10n\/et_EE.js": "f559fb2baf6cdb35bf6e70d712ca03df995a57c2f7cc9a1d96c1bd47f696798fec05f221e6887d3bc53b15498c30686f620ad8a1dfb823bc09aa5ecd37faed9a",
        "l10n\/et_EE.json": "712ca2ff5026a20b446ddb86e889b290356f5ceb7bf998e93790c169cd95829dc3dbf11f9d1ee054b32c497a8d9e93025fd6d8f0622e6fd71e15f15fecd294ca",
        "l10n\/eu.js": "51642aa33cf6db0bcdb9fa018cddf2d01b7e38a3e8956e9655389a5ea781f3afc702f47326af89493c0463a1cf32052973ab7e6d3219c73c5446af462ad7696f",
        "l10n\/eu.json": "d2319b0aad2a6c0a3ae8932b8ed6c64fa3be257213182279d59cc75b217c391614b9fef49ef055afb0c906bd900b95a9e92cd32282d8a954fac8c6feea2dce5b",
        "l10n\/fa.js": "0d4736759606393805de8f5c25cb902d78d9cfcb570a796d6aed48b531807dea87668ba6cb66a1974ade39dec72e8001c857f294d0361521c2802b3714e1b7ef",
        "l10n\/fa.json": "3991717a1ea08527f11169706f679bf425385c59bcfca8046daddd453259125c1800308e038a75f6b0439c0efe07e6f92c36b9622674174f5c053a445cc71c32",
        "l10n\/fi.js": "062c63d6452bc052c69e7ce0463f8479d9fb527ee25d91fc852bb7f5edd5cc75b1e05cf350970252c71951dde4c14427aea41543d876848fcbe93011c500d515",
        "l10n\/fi.json": "d4bec7ae01a848c6d7a932afcd8b2cfc608cd80e5d1ad00dc5931f2d0d24a9a500cd52d24d3d9299547bf7bf8572d026a24a65956a79e2d1f047d0c1150d2a5c",
        "l10n\/fo.js": "a97fb30de30c736a6b11992bd872269743708abe8a141b6a012b934b23480f720b7a363afd9f46444b025158281d90d2c9e1e6573968017dc44c9f0a5beeb958",
        "l10n\/fo.json": "3ba27d9707077ff802ef0d1b6a14b780844f8bdf90f8e080a422ec3e512f38497b0654d08c23b5b2d455396756e0bda4cb991108e20e6ca2692b3e9ce7899987",
        "l10n\/fr.js": "1f9473724af507111c86622f4ab27ccf840fa19754e6405c557295896bd428fe2c010c516a5ef61ceff0233c0531f35a651f62e14fbe2f69659d9066be377b8b",
        "l10n\/fr.json": "0e5049ba457924e9cd682aeb1875e89c0b93a73c9fa8bcc6f1077eaa5006cb920c4f5adfdead9ae04411514bf08073ad74367059b394ad6ce7104b1363a8f246",
        "l10n\/gl.js": "dcc9d6087f14bb1eeafab8d032e035439dccad55c127650ae8fb7311b731ff021c6075bb6fdca4fb610881a7963f7537ee13621c12cbd3f7f531ace9ed181458",
        "l10n\/gl.json": "411d8b425883846497d3c966892cb7156097b6cce025c152f8be7240e93e684922022807a818c6e055119aa0a6d83078bf5625b443c3e5d2f5fd11548183829e",
        "l10n\/he.js": "56ddd6038f2b050a04bccd531b65cf429cd8db5b20d821f86f03e600912dbf3b8eaf0a1a21d31f25f9f818da7365b244383f98034bdd3cbec6e7ea63b7cc13db",
        "l10n\/he.json": "c52f9ee65804608b33b1de6299582c0f64d014a55518f59e31d0e769bd404acbaa7028d053967a2058e1f467f71a72f51c5505e2639767241916a792f9898d0f",
        "l10n\/hr.js": "36cce4d4a8d66d3b3e11c482c270710c337eecc4cb3ac4da78afc381ba2ff61c400fc13208e4a13db79b04bfe5ef4fa21e2be599278e153fb81f4bc175cc0167",
        "l10n\/hr.json": "6b9e0decc11221535cd626d8871b47ff851081f0f3569d61a13f20e6e92e2e3d7ebe9b0b4bc71ad44eb576fb414d5cde54579184d4c4be2c2273c603b41fa944",
        "l10n\/hu.js": "a3704a0f1d9f8bfd919ff19b85bd01eb3b28bcd3d059ef80f977fac3cf77a5d66b8e75c9b726e285c86dc2ee47ccbaff8f822444309f1b99e58da91f7d154f24",
        "l10n\/hu.json": "6800652a6c0ea3666ceec3ca96ced80e5f045de9ef7bbaee1c2136d718057f81ffded62e4bcb1ed76e1ed1113deb22da5c999021bdbcf830496906bf564c5b52",
        "l10n\/hy.js": "4fdf3ec7280377098cf81fc2a17329a4dc0984bdc14e3094fb211c7e7ed92af00fa069a6370675c0f75a288f643b8e32b70e3b16af03c20399e6fadc6f63c91f",
        "l10n\/hy.json": "e4175236debbc27e27bf12fd75639d7468eb0617a1091f2d8a92bfd347cd58b4e597202965b162cc02b5306d50b9cd5bfc909c0dbdc1800b13c7af107b8a3d9f",
        "l10n\/ia.js": "02039530404a9a6c6291ae8845da097ff5bee759873548888971ec306a12d9605f5437af95549505b13a9c421651999ed5277185128c4e36bd55026a2946d1f9",
        "l10n\/ia.json": "e00a86db8ba7646ef3fe228baeb1c059fa01c9b4e274882f68101d65e74a853214b6e11afc0b4dfdca35e4aa619fc42633ab9f950ad25bf77940aea7779b63a1",
        "l10n\/id.js": "e85c9a7dee5db4ccaa4c75c72f3cc8910867332209ddced70db562c67734764700e4344efd145f4689976b263e5bf837f91d8ee7f4f7431ae3a06b0e5b3d1bcb",
        "l10n\/id.json": "e025a98d7203d44afa3ad62fca202a864162d67855f4a33ef0ad015e49b35d06fa7c315f651945bf7ae7881947160d6a81201ad2f6477875e2bdd0b46b7b7e2c",
        "l10n\/is.js": "ffa1c7cc30d728f9b4d5f376aed59a5f552d77623cca5c2384ec7d8af343fa8d2a9bf8f5bf91b3cb896c0756f67fc3b7280ee7de12ac9ab699bb27e205735dd0",
        "l10n\/is.json": "a3f6514b694fb3586a5cd53b0f7eb1eeb4486f8b3f6629e07a3a9da12d0113913a3d3b10bb91aab425e654c8832afde8e2f766db8535569171102e4df92e08e1",
        "l10n\/it.js": "c5d1141ffdd70e61efb2e5033fee14b278ca6ebef85dda50523cdf7a239d58d4a4920db8c0e45f400eebbf0214e6be04dd71ef940cfb9034d088f691522e8762",
        "l10n\/it.json": "9b25f0823850117f3f6e9a1909682603a3198a7f2986a5afa8e8e286ef55c259b190a094e1f23860274547cce7cc562ef287b6adbbc7c9d92d41f6fae5178199",
        "l10n\/ja.js": "ad6983addf4d0bc5b9250e338336b2c56511da68f326c372df97c328aa6351b5a3a6d24488276642fff6129239502ddf006ba2e58396ea6e92aa524e5d127a93",
        "l10n\/ja.json": "8c51d56667a65bb8b886f2739f790056281586d131b17198071071cc3f9214ced1d334dc3ff7b2d2e5cb2f5f1eea2e186bd48136bc9f16f13ececc615da5e083",
        "l10n\/ka_GE.js": "385df15bdaa8c1a5c460e17873f6fb3f04550e131c751f96c3429ce207009748d2afc617d355e6e164f99796d0c64c039305ffcfb779e562321d5dd542dc498c",
        "l10n\/ka_GE.json": "ee55335a5274baeede8ca87470ee7f9c642e4fbaff95cbfbe104d8f1a8affa48e03dfcdd51d08b5ef6c9c7945e30247553c1e8bc3887da4199eb3a932651d187",
        "l10n\/kab.js": "4e405ee278688e1f7d98643927ec96b48d393821d6e6750eccf9971141cf08b5cef79bf0dbe4e8b9f637485c6e5d7467ae5cf8bbacfa8c1ab845e8ac423e5eb3",
        "l10n\/kab.json": "599f80fc8daebb71879f79cc228ccdcb8e771105f975fdcfa05a51454556ca094fa311d4de9f0216c107163e2a16a2673f20111c8b065de1df44d6a88065c9d1",
        "l10n\/km.js": "9705c3b918753677895155264fc2c7a1ae413c1514cb41626ca7e3f12ac243bfa27b67bcb36bedf313bd832c21c2d965cdaeef3297ca27c504448d4278d1f23d",
        "l10n\/km.json": "9d05cf711af7bcf9f2956f17ac4d1f5370f14a7669f2539ed0c57c081b08078f95f757792d075ab90a40ebec3c5f28613fb8dda8e3850ae6b2b07cf09e903da2",
        "l10n\/kn.js": "f3121dae59a72e77aae5b82bc38ae00a93213324371b8ade64dde0361ac6d3f27bb4ef5b13fb7ca789cee594cde747e3d41d502c85eef190cf499501db36ec23",
        "l10n\/kn.json": "ee5987de1de817ce07c7763c0bb80c370324cb071d9f761fcfa14866f3e05f336c28b3104501c2cb9ff645f73c76b5cb0e72674d7cd2264c2008707a52869f93",
        "l10n\/ko.js": "79006ec55cdff1e6116499022b399db1c0a8a11fc9585ffc8dee2669f844e1e82fe368fd0ca9d459a369e096f2e42110396db5a70f1274e6d57c79ccc29140a6",
        "l10n\/ko.json": "fad4676e847580b207ffef2d22ea98a69c54e432c36b2fa9fc330aee532073b481ad2e41713405c5543f06b1d3f2550e27b8ae108a43f817be83f6ad2b504d63",
        "l10n\/lb.js": "67d38def2f4f5c22d166f543dcd99176bca7da12bf86dfd4f6313460a002926aebdb6a2de9ea09fe6b675406e5b50e1d64e0133a1d2e607ada01e66fa2819e51",
        "l10n\/lb.json": "a37c3bb9c014850dc02718598b877af282ed3b1a5f9de538f85936abd30c273d32337ab6388d3f4afb43f69db693acfacbaa5b6809f696bbcecb06cfca2d0187",
        "l10n\/lt_LT.js": "b76d4402588803f612a12a534fedab708c74f40f16e1d621c994e2277da3ac09e4f251780b6c20851602899b63c4109b46369cf548421cad7a14224478fdf551",
        "l10n\/lt_LT.json": "94b79a5f471c7ba7981ff7e6615355f3674bfe8e89456b90d37e0c45839cc3552f90f0c63641d62fd2e50cb7db6a2e8354bc08d5859695efb94f562f23185e9b",
        "l10n\/lv.js": "cbc63492a48690abebe539709da90c5e10fa273d51f2abf12490bb9129b67d1bab85430a98a54c2fc54c5ee4bacebff6d8a8517c6f6054db27656e04cdba644b",
        "l10n\/lv.json": "deb36353abe2ffab78bad944ca7749ebe9409667fe644ca3d7c98b0f4d0740e6c9993cb7c57e95494f2a557647c9ac3a262d3b19c1e4e9c7b7fa7d7ad851f3a4",
        "l10n\/mk.js": "25d0362ba1ac58b235cd7585c00ee3d4890dac23f6866623c4f4ce81d568e324a2eb93e7fcec55d27872462995bc421bc999e39fc0fb9c5a2fa85baa28e6c6b2",
        "l10n\/mk.json": "9abf70eb900095190ff16f821e3c749bfa66c4277f239712d10187b177b40c186bd739b2b4b84504b9d3dbff2cd7788e99e09dfbd9e4f978f6d2a0ed457f2be9",
        "l10n\/mn.js": "0257556ed2db18e8f804b6d6da49d1ba143243096136470b4ae328505138bfe7d2edff1fff80a32ea7d62fee7d04bde9172a3962b551efce73f5442df0e0853a",
        "l10n\/mn.json": "68678920be935e2bc4e1420c7d58e68eb81cb2a6e1744fa646d14176e8ca2daa5bb9322b91c9dd7031f938fc63b85693e1c83124125ef34413e37926c389c5b9",
        "l10n\/nb.js": "809c8ab77021895a45db98861d274a1f39831892b890e71d731ea64129de38fc5edd72e00691e4e75d8103a3f375fe1059e940f056ac99cbcce41156e9ad4079",
        "l10n\/nb.json": "efd947e6c5827819fc922c008d9142fa7ab49c555160bcaea4ae3d3354e880cdb3ba4c1c72ebd964ade78d947c62d2e37aeebade59ae0520d4bf71cc3620fde1",
        "l10n\/nl.js": "b3e77e55611950b823ab6d7e4108c8705a2253ba44dc0aed92be5e856d3db2af59a4c7a2a6c5ebf5385ce24b53705471d0b6f2890494ff57d17384f913b64159",
        "l10n\/nl.json": "0e53e9690e63523ad69f3c8d2f372d71d266f255e075f2d55fd4ebab3f645b289fb20e9c3d870b313a373cc575757a4e29dd6145b12a2dbbf4837d1821241079",
        "l10n\/nn_NO.js": "9fd90b87e5ceb7c0399d0325c35b4fe8c968388914e6d0978dff1c032b8f9f4276bbff1a2986c1a6de5825d6ecc0473d49669c19d14b797bb06268cb47b4a18e",
        "l10n\/nn_NO.json": "b4aa42f86fba582ba485d9981422cc4e3502594311c07b238cc053a974c0885efb18febcaf82b66946a9f49e70bada1e6405522fd0eb918d7136e3557a9d940b",
        "l10n\/oc.js": "c375618949ea048a3640c7c57f3d9b5c6262867be669e23df8b64597db42020d80ce7afa83f23d5c0b0d7a339fa366ff517b8a0f06027e74d1a03024314ac4d9",
        "l10n\/oc.json": "dfe89fc6d6671e643abef48cb820e17a8890d37640ed9e10e5c63b29b534276043a2c06cfa2bfcfaf1d1a32ae8c3a695c6273dab49d11f60fe1542eb222cf548",
        "l10n\/pl.js": "5baf14e8d3a4083d2666ac75dfa063cea77162d3065c42eed3fbad8b62c4043ce4f0df149296866cd340408594e101384312b65d325bc4513c00717b056ac1aa",
        "l10n\/pl.json": "f633ab6003366dc289929a19e5d32804a0c47a39cd017592ab902639089f821d0a5dbbcd767a131b89af441c1996423e361005751f68b9b89fb962f772251689",
        "l10n\/ps.js": "e7c21a749238668cf12d9b1f02785947d3f58b1def459ea5e182aa560c6fe07a19f044ab3c6a9624a89ac4f79747ec81f044f264dc8ad51a2f33e5b29fae1802",
        "l10n\/ps.json": "5d978924248b02477e44a28e00ca343c93b41b9e8044c3ea21929ec57154e4de9c75bfea34eeed6f31886f49fb0e7404485fc199d492b11d54dc80d216f096ec",
        "l10n\/pt_BR.js": "30f7f4e2020d3c92bc83a36346070e6b01f2dca096fa92925fbba906737cb348eb6c0bf8a334193ec7ffc352aec0453f1593874c0724a352e6ae7cedcfe91bc2",
        "l10n\/pt_BR.json": "fe8fecf762bf18ba622d464a2357c2b03166211db9d7533c180852bb14412771d5e5a0200c7eee1fdc333f35c435372cd8e79f3038d8a59a198923ae3de20c3a",
        "l10n\/pt_PT.js": "82bb7f16c158641e3961cbf9d1e50f8bca4b7603a633a617a0a06919ef01907bfd50f79e5cd8f113b13d436dd5837077a6561da1a2aa6bbfcaaf9f21e4c0d931",
        "l10n\/pt_PT.json": "0a0d131a42cdee05286c2cafb9c81bf119eb04a434933eaadf21ebfba8058ddd70f50d152b8cac1ea28f1bbd7dd56e2bc7cbb72876744a6a439efd58b7619f6b",
        "l10n\/ro.js": "08938501609e79af9ae821cc2d93a4fa988a9b279d1e25243e41eb0b0b7789468b01769b5681839b323a48640d7f2dde90aebf72e8d4f279144008b2e4f348e9",
        "l10n\/ro.json": "aa400862acb60b5d750f3f504d8067e72920b86725cd6593c4da10438de0bd9a0038678d33d414a7f0c3cb6c6dd7e7fa147fd789ff881b0d0959710fd843db25",
        "l10n\/ru.js": "e2f837e38db443fa2558390b50bf13af14deaac1c3d83057f1ee32d8af783f82ca53d0426518c74c9ee871b8a70f51bd34abb421d762c5e5efc04680f758a356",
        "l10n\/ru.json": "5880d2e29269e7d1af66fb4e85201c91d4c18278b6543f390e8c337f194371266db37cbd68f7923d908e03d01de54c6f1cee6279b8348b0bc6c612dd1fa4397c",
        "l10n\/sk.js": "0068ff5809eccba77d851570ba29ca9bf78cc6ffe2525255b2d1895e81f5a00241d44b9a015cf1fbfc399196945a05b04f4098cce4b8d88d793092827c8a0a2f",
        "l10n\/sk.json": "f08018574c59b68fc994d5998227187fa7da8da03d31d210a7d1d3e325ad3ad3df553ca4c25cabe465a463c9a28b493eec0bf0db45ad6c1fe0f48c09bbd3a226",
        "l10n\/sl.js": "b761ad394371a9f270750e552fadc36e37b66facd6d943065697d4abd92f0e26c703ee596560102b1c3360d8411727572c8295eaad76b46f8f73216d06e13c86",
        "l10n\/sl.json": "5e9a09583650e7eb89261337e4f12f499dfdc789e7227dd801e56ac3b7087f4c8fb275cb461bd7340970bc5a08638c1c4b2345afa768ae6b1acbe4451b0cdcaa",
        "l10n\/sq.js": "358025bce606dd93e139a449b23478c507df8186360c460eb2fcfa30c80c5026101ae2879991b3386ad907dd5b38f2e55d58baa8ab8225fd75af60c23adb20b1",
        "l10n\/sq.json": "c1eff063cf79ba06bb29c74a3ec6b872a2242b7e8155b098ee6eb34a7d59158e93d87c264e8d57fd2177b1863c43c6ac51d14dc46e9e85524e40ee917e295a81",
        "l10n\/sr.js": "464b914c35dcc59987e34cc4cc6c8813b2078bd2e50e1218776340f8da98d5adffe6f98c37c2c41395d531abcbfe3bd00adecfb4a603c90c9af991ef8a594539",
        "l10n\/sr.json": "cbbdaf85874916700ee664365cc4892e4423015e9bbce7da14b29741d026ba2c09b400a107acb756705f49d29d9caa18f29570015c3f9a02bf85ea7a18a5da59",
        "l10n\/sr@latin.js": "ea0aa48670492fe10eb21e25cdbb20149274ede5a01b35e237ac550a1a55c886d59e8a6b62b111bcf7e1a9f9d27669bdacac6bf8bc4eefd2bffb6962a863c9e1",
        "l10n\/sr@latin.json": "6b7316aee485f1a59c8e466affb1ad50d3ea1243b81ddc035ac87b709fba65cc25139301119eb5a009508169dfb89ed2e78d3b745f269f1480cf656090278e97",
        "l10n\/sv.js": "024d650a4c03dfe4518d16ec0afbaf69a72585b9589ee6e7a1420d79291f75df8ac19885ac46b9adbeaedf765078444a6b9e74212bde78c69d7fed05d72c153e",
        "l10n\/sv.json": "96edb74e47fd026d68e86b7e6b6c8389a8cc9da18f26eedce87d1988350d85c5b40f8405aeb39b74cf053cb7a86104b316e916e81ea940c889fcffe1995470cf",
        "l10n\/th.js": "7c119b082ffa4ce70faeb58976e018ce594160e04b5f52752cb246b211b929917877f24e5fc08b915f299b3402dc95f4a04ad571a8aee35d32070a2d1a2e29dd",
        "l10n\/th.json": "42da57470bdc4e801089dae6b313978f02ed2a459a9210bc6be9669dd4b37ba35ddd9fce2c2f2cc9b7f5e98c26e7366943771347cdcd81b42c2c73321459da5b",
        "l10n\/tr.js": "f0dd0d7e794ab8c305623249972f11f23f97cc089bd6113d0c9a6a7ccaef5dc8be80de9aa66b22061525654c1410959f286dd0a5621511b1bd2be08947b41921",
        "l10n\/tr.json": "03b32a6ff66dc0683a7d4ed799dbaefade4ef0ae3d39ad87fac5f874e4bfb0e5cc79477b03d58ddbdabe53fabfa4155a50cde987ef9b8c85c109a4ea8b66e13a",
        "l10n\/ug.js": "e34ed268d7fcb5d07efa814353b53bf194ef9634388c6527ea91c417b941d92fea2614deba0fa6cd274115c06f1b82a7af29f0ea6d2c62f4dbd110b07e424a13",
        "l10n\/ug.json": "d3ec0f59610a8d25e7c2e58fde768b4c8c02a756983e33cc4dc4340e55cc75da29ee15826807afba885c97e000717480f1d719efbc7e512208a9c21f0c269b31",
        "l10n\/uk.js": "995d310f8e5ac0d1afac58f00ac2596360d120e6e6b1675f5fd6a525067d4a0b2a6f6c6a49a52da6d14618e29ede3c657d472a28970b2a475c7d194d4f85f8f8",
        "l10n\/uk.json": "06c988888e52875f7ac73e8862bd8079ee56cfa3f1a7412b634237f84da036f641976fae623d681767decc61b32e71b9b3716ba306e5188021509183072fda8a",
        "l10n\/uz.js": "170e825549b10edf1a1ad988c91637e92b9f4b4b8e034cc385659966df06c2ab6f8ec7f1a08081d0628ec31f4c5ccbd7619aca6e8994271ab854962fc4c9c6c9",
        "l10n\/uz.json": "0c7aedf5a2c42604b892aced73ae21708245abbe30c9b96e57465ff3081722e6b3604754bb71913a036ee758ce6dc66af83155e2cea3d977c4032346cd70216f",
        "l10n\/vi.js": "e6b62d3b1c31502f14411df89f8e1d485ab58391484090273735fc8bf05c1cafc93e2614430c2be1361dedb6a83157a95c197b70882dddb26b7353a3c2a3a041",
        "l10n\/vi.json": "bf0d9832db9c6897de79ad5368f87b75efffb61287e5116d2c1f1f2c1759e228e4863238b1f9d48799cf543a6d04a6b9013893e56a021954223e892a668ec408",
        "l10n\/zh_CN.js": "42038e53848519fe4cb116b8fc383895a3efb512fd3c819648feee59af9e8ebca14dcfccf7d3612fb27bb0f6a2efa783c8638355790176f888a3cf930d79ac87",
        "l10n\/zh_CN.json": "6145da6e5525ff300fcac670c866a8eb28aee1568d9a12e15bd3ee53d2aace0945e6cd244f621288affd5a1262f464b674cbb59fefbd54b64c73d1df83662d5c",
        "l10n\/zh_HK.js": "55952285e6a7e9110ffad960f5438ae620e35188c4ed47defb009566f9cd16e34c1da259fbef518177d16a1ad1acf1a12530aab098aa4a59d2f96fb94863b293",
        "l10n\/zh_HK.json": "82843e8cfa4d2b10bcfc7cecc579f0619f1ee3e759b0ba9620e272d65df46f7537c778d8d088a5a2c24542c64a1494162c6404d0661e777f656c0f8bc1184eef",
        "l10n\/zh_TW.js": "46d1c376df0330d47f9095624c885b0d5d49cba59f6cb7f1997d5dcaa825cad8bb9fb7c5250a22243d9b434043677e1910d4838f2129bfca6ff101f762fb1f69",
        "l10n\/zh_TW.json": "addb6d5a68886e67ca728b2768c2210c1e89fca7a56a742bf509dc6c2eef761c944f34987e0deb0fb6275c3ef67d9a9a5240b9c24e69dc316d8b2c7ae47d5007",
        "lib\/AppInfo\/Application.php": "a0a6356c1d5cd9c5352b817902817f9917cb8e46219657f5a8df2aabaf3d257ca19d4488462b34a17f34b35fa775e742f6ac9a5fd8f06e12620eea9e41b2d82a",
        "lib\/Command\/Tail.php": "9c592e7dd6e03801850fc117e698fa9dc025cb3559fd2908bdae7b19ee70c6596333ea72887a60cf99207fc1d4c5028b3f1e0f6dc8ff4fd9d7e1a2b5b936fb63",
        "lib\/Command\/Watch.php": "0e8629548f4620e071bc17713cce4fa322de5b1dbcdcbcf04e1ba9ba2bc0f94806dced9d683950b60bec6a97018df09448d2bac13b3233a751ca2d34193e1345",
        "lib\/Controller\/LogController.php": "d5338bc16bd9e76f74115ae9d389a74e61dfd82bd473ee4692a75d2d0051ad4aec8921f819bf0f0f0cffe8baf46d2795ac654b9308dc51f65a0501667e2a0d4c",
        "lib\/Controller\/PageController.php": "8d0420ed341ed2d447cd7fa8c09f38652d6a30857aece04ea35408ab4370f6ebfe09daf369c9defcb92f9e73195782dfbce2fde4afdb89ee4be338c2c0375424",
        "lib\/Log\/Formatter.php": "b037592d375c66781fa763ca958fc1b6b036762adcf714fda9fe3ccefe2e8d5ab33672973cb9418d92883c265c082849c76fd7d71c8979ce4812c34e76e85e7a",
        "lib\/Log\/LogIterator.php": "dd5fbb9d09047a460ae309770a02775244cc80ae952e3654904828a13ffcc044ec11601169489ff669455aead5fc8032dfcebfe0c758bf1ebc177eefb02d3347",
        "lib\/Log\/LogIteratorFactory.php": "425e2955bc5cb1a71554d50784aa979ebf3d937f8754d47aed66a7365457d47d3a1afe0dc7b4178cdfddd2227143285bfa2a14a5f791c5da7e34981f68afee67",
        "lib\/Log\/SearchFilter.php": "c7fd4bb0f1c2edec56c76f14f61ac498640a84ea35f3d77f5ee58acbf427f27e1a7d7a6c8de34fab586fdb3e188443b027601347c50c0a43368fec11f5ac6134",
        "lib\/Settings\/Admin.php": "7fc9375a292055ca1a84e060d75dd3422d3be192a51c4f6a7592703c65c3f3cc63f2e4b7158e1bf66e1166c1644e5585d67b02885ca2661738aa853b46f3372c",
        "lib\/Settings\/Section.php": "64b83af05bfcc75f877746d7e0bd6e283177b92591f3a4d60f95765c9ee1e4be59e2191ab28176db7821e3929fbe0d2e086e8460971dae447b587dba6e302960",
        "postcss.config.js": "01fe46c6c3db0ba572b3aa835093c59b65f1db2046375526488a816840dc71df480b57d02c070267bdc519657021e2ee23a34ed0f34cf82eacef9c150fbb1918",
        "screenshots\/reader.png": "649b09ae0865fe73a83be4dfb32b14c2eae4987d6b68b762fc72cf201b6c07d29b00a3f73acfb8480958b0b55eb3e54a9ebcf8c52f9501d400245b7b85687e0b",
        "templates\/index.php": "317f84405838725640456f2ff5b3ef368af35529b43f6c250bfeae4b08b706b103a358a3fabf5da8bfc17054f00f4b8d43506d06510464769918c04449e19441",
        "webpack\/dev.config.js": "7b5f1f0b9d9b83d44cdbd7a1268b6de1cbec88edef90607c201e16d48bd1e172612406242a4a7c123f71102ab5a674eebc6be7aa02fdce6cb0f3d13e44ca2710",
        "webpack\/prod.config.js": "3f0c8798e531f73161ac03845f9bb1ed052c10c97dd4cd51ccc41d40f5eeb83ec9c2476b8558e9c38ec2ac8be6f2ea275abf951007c84db72efb8d6eb2e2b50e"
    },
    "signature": "IXDf2M1pVw3ZACUlCu8GdW8KU42+wGKLR6lnbxQ3FAmKVHN6Q0h2Btc0J\/JfLmbla9oERgAjggSHyS7zx8WM+hv2EmvfEzn\/3ezAa9nQH05w5tK9OpYjQAadoUjksS4+zc4UphkLtJD9FvGVjVYis4pBel2KeeIe\/2Kko2O\/8NWbYOQEFL\/393i6mKkxEaNWl99ybd0\/Js4ybj4+LjL6F50DDzbX6pTU4FBtP9peA0NfTgtq0P8P80IydlAC4kzHwyQkJqH+KB0NHIyKlU7bO8YO221jylhgWNl\/u03xsZR4aU6nx2W+KugHs5ADol+GngQbojdp\/hnf52CYaF5rZg==",
    "certificate": "-----BEGIN CERTIFICATE-----\r\nMIIEojCCA4qgAwIBAgICEAAwDQYJKoZIhvcNAQELBQAwezELMAkGA1UEBhMCREUx\r\nGzAZBgNVBAgMEkJhZGVuLVd1ZXJ0dGVtYmVyZzEXMBUGA1UECgwOTmV4dGNsb3Vk\r\nIEdtYkgxNjA0BgNVBAMMLU5leHRjbG91ZCBDb2RlIFNpZ25pbmcgSW50ZXJtZWRp\r\nYXRlIEF1dGhvcml0eTAeFw0xNjA2MTIyMTA1MDZaFw00MTA2MDYyMTA1MDZaMGYx\r\nCzAJBgNVBAYTAkRFMRswGQYDVQQIDBJCYWRlbi1XdWVydHRlbWJlcmcxEjAQBgNV\r\nBAcMCVN0dXR0Z2FydDEXMBUGA1UECgwOTmV4dGNsb3VkIEdtYkgxDTALBgNVBAMM\r\nBGNvcmUwggEiMA0GCSqGSIb3DQEBAQUAA4IBDwAwggEKAoIBAQDUxcrn2DC892IX\r\n8+dJjZVh9YeHF65n2ha886oeAizOuHBdWBfzqt+GoUYTOjqZF93HZMcwy0P+xyCf\r\nQqak5Ke9dybN06RXUuGP45k9UYBp03qzlUzCDalrkj+Jd30LqcSC1sjRTsfuhc+u\r\nvH1IBuBnf7SMUJUcoEffbmmpAPlEcLHxlUGlGnz0q1e8UFzjbEFj3JucMO4ys35F\r\nqZS4dhvCngQhRW3DaMlQLXEUL9k3kFV+BzlkPzVZEtSmk4HJujFCnZj1vMcjQBg\/\r\nBqq1HCmUB6tulnGcxUzt\/Z\/oSIgnuGyENeke077W3EyryINL7EIyD4Xp7sxLizTM\r\nFCFCjjH1AgMBAAGjggFDMIIBPzAJBgNVHRMEAjAAMBEGCWCGSAGG+EIBAQQEAwIG\r\nQDAzBglghkgBhvhCAQ0EJhYkT3BlblNTTCBHZW5lcmF0ZWQgU2VydmVyIENlcnRp\r\nZmljYXRlMB0GA1UdDgQWBBQwc1H9AL8pRlW2e5SLCfPPqtqc0DCBpQYDVR0jBIGd\r\nMIGagBRt6m6qqTcsPIktFz79Ru7DnnjtdKF+pHwwejELMAkGA1UEBhMCREUxGzAZ\r\nBgNVBAgMEkJhZGVuLVd1ZXJ0dGVtYmVyZzESMBAGA1UEBwwJU3R1dHRnYXJ0MRcw\r\nFQYDVQQKDA5OZXh0Y2xvdWQgR21iSDEhMB8GA1UEAwwYTmV4dGNsb3VkIFJvb3Qg\r\nQXV0aG9yaXR5ggIQADAOBgNVHQ8BAf8EBAMCBaAwEwYDVR0lBAwwCgYIKwYBBQUH\r\nAwEwDQYJKoZIhvcNAQELBQADggEBADZ6+HV\/+0NEH3nahTBFxO6nKyR\/VWigACH0\r\nnaV0ecTcoQwDjKDNNFr+4S1WlHdwITlnNabC7v9rZ\/6QvbkrOTuO9fOR6azp1EwW\r\n2pixWqj0Sb9\/dSIVRpSq+jpBE6JAiX44dSR7zoBxRB8DgVO2Afy0s80xEpr5JAzb\r\nNYuPS7M5UHdAv2dr16fDcDIvn+vk92KpNh1NTeZFjBbRVQ9DXrgkRGW34TK8uSLI\r\nYG6jnfJ6eJgTaO431ywWPXNg1mUMaT\/+QBOgB299QVCKQU+lcZWptQt+RdsJUm46\r\nNY\/nARy4Oi4uOe88SuWITj9KhrFmEvrUlgM8FvoXA1ldrR7KiEg=\r\n-----END CERTIFICATE-----"
}